CAJEROS MADRID
…
CAJEROS-CALLEJERO

A la direccin del Cajero le aado Distrito, Barrio, Seccin Censal y las Coordenadas Geogrficas

Hay unos pocos registros del fichero inicial de Cajeros (y que detallo al final) que no cruzan por uno de estos 2 motivos:

1 - El nmero" de la va viene a 0, por lo que no pueden cruzar

2 - Otros con todos los datos rellenos y que no aparecen en el fichero del callejero. En alguno de los 2 ficheros la direccin no es correcta

# A tibble: 1,335 x 8
   TipoVia NomVia       Numero CodDis CodBar SecCen Longitud   Latitud    
   <chr>   <chr>        <chr>  <chr>  <chr>  <chr>  <chr>      <chr>      
 1 AVENIDA ABRANTES     000042 11     7      171    3:43'37.8~ 40:22'54.3~
 2 AVENIDA ABRANTES     000054 11     7      169    3:43'42.6~ 40:22'50.3~
 3 AVENIDA ABRANTES     000080 11     7      165    3:43'50.3~ 40:22'44.8~
 4 AVENIDA ALBERTO ALC~ 000001 05     5      070    3:41'19.5~ 40:27'33.7~
 5 AVENIDA ALBERTO ALC~ 000013 05     5      073    3:41'9.26~ 40:27'32.4~
 6 AVENIDA ALBERTO ALC~ 000026 05     4      067    3:41'3.3'~ 40:27'30.6~
 7 AVENIDA ALBERTO ALC~ 000029 05     5      074    3:41'0.21~ 40:27'31.7~
 8 AVENIDA ALBERTO ALC~ 000046 05     4      061    3:40'48.6~ 40:27'30.0~
 9 AVENIDA ALBERTO ALC~ 000048 05     4      061    3:40'44.3~ 40:27'30.3~
10 AVENIDA ALBUFERA     000014 13     2      042    3:40'4.99~ 40:23'51.1~
# ... with 1,325 more rows
…
CAJEROS-CALLEJERO-RENTA

Al fichero anterior le aado la renta neta media de los Hogares a nivel Seccin Censal

Hay unos pocos registros del fichero de Cajeros-Callejero (y que detallo al final) que no cruzan por que la combinacin de Distrito-Barrio-Seccin Censal no aparece en el fichero de Renta Neta Media

Posteriormente creo una funcin para pasar las coordenadas de tipo S.R. ETRS89/WGS84 a decimales y la aplico a las coordenadas del fichero de arrastre aadiendo las columnas de Longitud y Latitud

# A tibble: 1,316 x 10
   TipoVia NomVia Numero CodDis CodBar SecCen Longitud Latitud Tramo Renta
   <chr>   <chr>  <chr>  <chr>  <chr>  <chr>  <chr>    <chr>   <dbl> <chr>
 1 CALLE   LEGAN~ 000047 01     1      001    3:42'39~ 40:25'~     9 Entr~
 2 CALLE   GRAN ~ 000047 01     1      003    3:42'27~ 40:25'~     5 Entr~
 3 CALLE   GRAN ~ 000067 01     1      003    3:42'36~ 40:25'~     5 Entr~
 4 CALLE   CUCHI~ 000014 01     1      008    3:42'29~ 40:24'~     6 Entr~
 5 PLAZA   SAN M~ 000002 01     1      008    3:42'33~ 40:24'~     6 Entr~
 6 PLAZA   SAN M~ 000009 01     1      008    3:42'34~ 40:24'~     6 Entr~
 7 CALLE   CAVA ~ 000001 01     1      009    3:42'29~ 40:24'~     6 Entr~
 8 CALLE   TOLEDO 000046 01     1      012    3:42'28~ 40:24'~     4 Entr~
 9 CALLE   TOLEDO 000052 01     1      012    3:42'29~ 40:24'~     4 Entr~
10 CALLE   TOLEDO 000054 01     1      012    3:42'30~ 40:24'~     4 Entr~
# ... with 1,306 more rows
…
CAJEROS-CALLEJERO-RENTA-POBLACIN

Al fichero de arrastre le aado la poblacin de las Secciones Censales

# A tibble: 1,316 x 13
   TipoVia NomVia Numero CodDis CodBar SecCen Longitud Latitud Tramo Renta
   <chr>   <chr>  <chr>   <dbl>  <dbl>  <dbl> <chr>    <chr>   <dbl> <chr>
 1 CALLE   LEGAN~ 000047      1      1      1 3:42'39~ 40:25'~     9 Entr~
 2 CALLE   GRAN ~ 000047      1      1      3 3:42'27~ 40:25'~     5 Entr~
 3 CALLE   GRAN ~ 000067      1      1      3 3:42'36~ 40:25'~     5 Entr~
 4 CALLE   CUCHI~ 000014      1      1      8 3:42'29~ 40:24'~     6 Entr~
 5 PLAZA   SAN M~ 000002      1      1      8 3:42'33~ 40:24'~     6 Entr~
 6 PLAZA   SAN M~ 000009      1      1      8 3:42'34~ 40:24'~     6 Entr~
 7 CALLE   CAVA ~ 000001      1      1      9 3:42'29~ 40:24'~     6 Entr~
 8 CALLE   TOLEDO 000046      1      1     12 3:42'28~ 40:24'~     4 Entr~
 9 CALLE   TOLEDO 000052      1      1     12 3:42'29~ 40:24'~     4 Entr~
10 CALLE   TOLEDO 000054      1      1     12 3:42'30~ 40:24'~     4 Entr~
# ... with 1,306 more rows, and 3 more variables: LatitudD <dbl>,
#   LongitudD <dbl>, Poblacion <dbl>
…
ACUMULACIN

Acumulo Cajeros por Distrito-Barrio-Seccin Censal con el fin de obtener el fichero definitivo de trabajo: Total de Cajeros por Seccin Censal

Selecciono solo los Campos que me interesan

# A tibble: 817 x 14
   TipoVia NomVia Numero CodDis CodBar SecCen Longitud Latitud Tramo Renta
   <chr>   <chr>  <chr>   <dbl>  <dbl>  <dbl> <chr>    <chr>   <dbl> <chr>
 1 CALLE   LEGAN~ 000047      1      1      1 3:42'39~ 40:25'~     9 Entr~
 2 CALLE   GRAN ~ 000047      1      1      3 3:42'27~ 40:25'~     5 Entr~
 3 CALLE   CUCHI~ 000014      1      1      8 3:42'29~ 40:24'~     6 Entr~
 4 CALLE   CAVA ~ 000001      1      1      9 3:42'29~ 40:24'~     6 Entr~
 5 CALLE   TOLEDO 000046      1      1     12 3:42'28~ 40:24'~     4 Entr~
 6 CARRERA SAN F~ 000005      1      1     14 3:42'43~ 40:24'~     5 Entr~
 7 CALLE   TOLEDO 000077      1      2     24 3:42'32~ 40:24'~     2 Entr~
 8 CALLE   DUUE~ 000004      1      2     25 3:42'20~ 40:24'~     6 Entr~
 9 CALLE   TOLEDO 000033      1      2     26 3:42'26~ 40:24'~     5 Entr~
10 CALLE   DUUE~ 000007      1      2     28 3:42'21~ 40:24'~     3 Entr~
# ... with 807 more rows, and 4 more variables: LatitudD <dbl>,
#   LongitudD <dbl>, Poblacion <dbl>, freq <int>
…
